Warning: QPainter::begin: Paint device returned engine == 0, type: 1
Warning: QPainter::setPen: Painter not active
Warning: QPainter::setBrush: Painter not active
Warning: QPainter::setRenderHint: Painter must be active to set rendering hints
Warning: QPainter::setPen: Painter not active
Debug: "14:09:39 ..\..\src\simpleeventcontroller.cpp:606 HV: Set Playback Mode" 
Debug: "14:09:45 ..\..\src\propertyslider.cpp:315 EV: Set Volume" 
Debug: "14:09:45 ..\..\src\propertyslider.cpp:315 EV: Set Volume" 
Debug: "14:09:45 ..\..\src\propertyslider.cpp:315 EV: Set Volume" 
Debug: "14:09:45 ..\..\src\propertyslider.cpp:315 EV: Set Volume" 
Debug: "14:09:45 ..\..\src\propertyslider.cpp:315 EV: Set Volume" 
Debug: "14:09:45 ..\..\src\propertyslider.cpp:315 EV: Set Volume" 
Debug: "14:09:45 ..\..\src\propertyslider.cpp:315 EV: Set Volume" 
Debug: "14:09:45 ..\..\src\propertyslider.cpp:315 EV: Set Volume" 
Debug: "14:09:45 ..\..\src\propertyslider.cpp:315 EV: Set Volume" 
Debug: "14:09:45 ..\..\src\propertyslider.cpp:315 EV: Set Volume" 
Debug: "14:09:45 ..\..\src\propertyslider.cpp:315 EV: Set Volume" 
Debug: "14:09:45 ..\..\src\propertyslider.cpp:315 EV: Set Volume" 
Debug: "14:09:45 ..\..\src\propertyslider.cpp:315 EV: Set Volume" 
Debug: "14:09:45 ..\..\src\propertyslider.cpp:315 EV: Set Volume" 
Debug: "14:09:45 ..\..\src\propertyslider.cpp:315 EV: Set Volume" 
Debug: "14:09:45 ..\..\src\propertyslider.cpp:315 EV: Set Volume" 
Debug: "14:09:45 ..\..\src\propertyslider.cpp:315 EV: Set Volume" 
Debug: "14:09:45 ..\..\src\propertyslider.cpp:315 EV: Set Volume" 
Debug: "14:09:45 ..\..\src\propertyslider.cpp:315 EV: Set Volume" 
Debug: "14:09:45 ..\..\src\propertyslider.cpp:315 EV: Set Volume" 
Debug: "14:09:45 ..\..\src\propertyslider.cpp:315 EV: Set Volume" 
Debug: "14:09:45 ..\..\src\propertyslider.cpp:315 EV: Set Volume" 
Debug: "14:09:45 ..\..\src\propertyslider.cpp:315 EV: Set Volume" 
Debug: "14:09:45 ..\..\src\propertyslider.cpp:315 EV: Set Volume" 
Debug: "14:09:45 ..\..\src\propertyslider.cpp:315 EV: Set Volume" 
Debug: "14:09:45 ..\..\src\propertyslider.cpp:315 EV: Set Volume" 
Debug: "14:09:45 ..\..\src\propertyslider.cpp:315 EV: Set Volume" 
Debug: "14:09:45 ..\..\src\propertyslider.cpp:315 EV: Set Volume" 
Debug: "14:09:45 ..\..\src\propertyslider.cpp:315 EV: Set Volume" 
Debug: "14:09:45 ..\..\src\propertyslider.cpp:315 EV: Set Volume" 
Debug: "14:09:45 ..\..\src\propertyslider.cpp:315 EV: Set Volume" 
Debug: "14:09:45 ..\..\src\propertyslider.cpp:315 EV: Set Volume" 
Debug: "14:09:45 ..\..\src\propertyslider.cpp:315 EV: Set Volume" 
Debug: "14:09:45 ..\..\src\propertyslider.cpp:315 EV: Set Volume" 
Debug: "14:09:45 ..\..\src\propertyslider.cpp:315 EV: Set Volume" 
Debug: "14:09:45 ..\..\src\propertyslider.cpp:315 EV: Set Volume" 
Debug: "14:09:45 ..\..\src\propertyslider.cpp:315 EV: Set Volume" 
Debug: "14:09:45 ..\..\src\propertyslider.cpp:315 EV: Set Volume" 
Debug: "14:09:45 ..\..\src\propertyslider.cpp:315 EV: Set Volume" 
Debug: "14:09:45 ..\..\src\propertyslider.cpp:315 EV: Set Volume" 
Debug: "14:09:45 ..\..\src\propertyslider.cpp:315 EV: Set Volume" 
Debug: "14:09:45 ..\..\src\propertyslider.cpp:315 EV: Set Volume" 
Debug: "14:09:45 ..\..\src\propertyslider.cpp:315 EV: Set Volume" 
Debug: "14:09:45 ..\..\src\propertyslider.cpp:315 EV: Set Volume" 
Debug: "14:09:45 ..\..\src\propertyslider.cpp:315 EV: Set Volume" 
Debug: "14:09:45 ..\..\src\propertyslider.cpp:315 EV: Set Volume" 
Debug: "14:09:45 ..\..\src\propertyslider.cpp:315 EV: Set Volume" 
Debug: "14:09:46 ..\..\src\propertyslider.cpp:315 EV: Set Volume" 
Debug: "14:09:46 ..\..\src\propertyslider.cpp:315 EV: Set Volume" 
Debug: "14:09:46 ..\..\src\propertyslider.cpp:315 EV: Set Volume" 
Debug: "14:09:46 ..\..\src\propertyslider.cpp:315 EV: Set Volume" 
Debug: "14:09:46 ..\..\src\propertyslider.cpp:315 EV: Set Volume" 
Debug: "14:09:46 ..\..\src\propertyslider.cpp:315 EV: Set Volume" 
Debug: "14:09:46 ..\..\src\propertyslider.cpp:315 EV: Set Volume" 
Debug: "14:09:46 ..\..\src\propertyslider.cpp:315 EV: Set Volume" 
Debug: "14:09:46 ..\..\src\propertyslider.cpp:315 EV: Set Volume" 
Debug: "14:09:46 ..\..\src\propertyslider.cpp:315 EV: Set Volume" 
Debug: "14:09:46 ..\..\src\propertyslider.cpp:315 EV: Set Volume" 
Debug: "14:09:46 ..\..\src\propertyslider.cpp:315 EV: Set Volume" 
Debug: "14:09:46 ..\..\src\propertyslider.cpp:315 EV: Set Volume" 
Debug: "14:09:46 ..\..\src\propertyslider.cpp:315 EV: Set Volume" 
Debug: "14:09:46 ..\..\src\propertyslider.cpp:315 EV: Set Volume" 
Debug: "14:09:46 ..\..\src\propertyslider.cpp:315 EV: Set Volume" 
Debug: "14:09:46 ..\..\src\propertyslider.cpp:315 EV: Set Volume" 
Debug: "14:09:46 ..\..\src\propertyslider.cpp:315 EV: Set Volume" 
Debug: "14:09:46 ..\..\src\propertyslider.cpp:315 EV: Set Volume" 
Debug: "14:09:46 ..\..\src\propertyslider.cpp:315 EV: Set Volume" 
Debug: "14:09:46 ..\..\src\propertyslider.cpp:315 EV: Set Volume" 
Debug: "14:09:46 ..\..\src\propertyslider.cpp:315 EV: Set Volume" 
Debug: "14:09:46 ..\..\src\propertyslider.cpp:315 EV: Set Volume" 
Debug: "14:09:46 ..\..\src\propertyslider.cpp:315 EV: Set Volume" 
Debug: "14:09:46 ..\..\src\propertyslider.cpp:315 EV: Set Volume" 
Debug: "14:09:46 ..\..\src\propertyslider.cpp:315 EV: Set Volume" 
Debug: "14:09:46 ..\..\src\propertyslider.cpp:315 EV: Set Volume" 
Debug: "14:09:46 ..\..\src\propertyslider.cpp:315 EV: Set Volume" 
Debug: "14:09:46 ..\..\src\propertyslider.cpp:315 EV: Set Volume" 
Debug: "14:09:46 ..\..\src\propertyslider.cpp:315 EV: Set Volume" 
Debug: "14:09:46 ..\..\src\propertyslider.cpp:315 EV: Set Volume" 
Debug: "14:09:46 ..\..\src\propertyslider.cpp:315 EV: Set Volume" 
Debug: "14:09:46 ..\..\src\propertyslider.cpp:315 EV: Set Volume" 
Debug: "14:09:46 ..\..\src\propertyslider.cpp:315 EV: Set Volume" 
Debug: "14:09:46 ..\..\src\propertyslider.cpp:315 EV: Set Volume" 
Debug: "14:09:46 ..\..\src\propertyslider.cpp:315 EV: Set Volume" 
Debug: "14:09:46 ..\..\src\propertyslider.cpp:315 EV: Set Volume" 
Debug: "14:09:46 ..\..\src\propertyslider.cpp:315 EV: Set Volume" 
Debug: "14:09:46 ..\..\src\propertyslider.cpp:315 EV: Set Volume" 
Debug: "14:09:46 ..\..\src\propertyslider.cpp:315 EV: Set Volume" 
Debug: "14:09:46 ..\..\src\propertyslider.cpp:315 EV: Set Volume" 
Debug: "14:09:46 ..\..\src\propertyslider.cpp:315 EV: Set Volume" 
Debug: "14:09:46 ..\..\src\propertyslider.cpp:315 EV: Set Volume" 
Debug: "14:09:46 ..\..\src\propertyslider.cpp:315 EV: Set Volume" 
Debug: "14:09:46 ..\..\src\propertyslider.cpp:315 EV: Set Volume" 
Debug: "14:09:46 ..\..\src\propertyslider.cpp:315 EV: Set Volume" 
Debug: "14:09:46 ..\..\src\propertyslider.cpp:315 EV: Set Volume" 
Debug: "14:09:46 ..\..\src\propertyslider.cpp:315 EV: Set Volume" 
Debug: "14:09:46 ..\..\src\propertyslider.cpp:315 EV: Set Volume" 
Debug: "14:09:46 ..\..\src\propertyslider.cpp:315 EV: Set Volume" 
Debug: "14:09:46 ..\..\src\propertyslider.cpp:315 EV: Set Volume" 
Debug: "14:09:46 ..\..\src\propertyslider.cpp:315 EV: Set Volume" 
Debug: "14:09:46 ..\..\src\propertyslider.cpp:315 EV: Set Volume" 
Debug: "14:09:46 ..\..\src\propertyslider.cpp:315 EV: Set Volume" 
Debug: "14:09:46 ..\..\src\propertyslider.cpp:315 EV: Set Volume" 
Debug: "14:09:46 ..\..\src\propertyslider.cpp:315 EV: Set Volume" 
Debug: "14:09:46 ..\..\src\propertyslider.cpp:315 EV: Set Volume" 
Debug: "14:09:47 ..\..\src\propertyslider.cpp:315 EV: Set Volume" 
Debug: "14:09:47 ..\..\src\propertyslider.cpp:315 EV: Set Volume" 
Debug: "14:09:47 ..\..\src\propertyslider.cpp:315 EV: Set Volume" 
Debug: "14:09:47 ..\..\src\propertyslider.cpp:315 EV: Set Volume" 
Debug: "14:09:47 ..\..\src\propertyslider.cpp:315 EV: Set Volume" 
Debug: "14:09:47 ..\..\src\propertyslider.cpp:315 EV: Set Volume" 
Debug: "14:09:47 ..\..\src\propertyslider.cpp:315 EV: Set Volume" 
Debug: "14:09:47 ..\..\src\propertyslider.cpp:315 EV: Set Volume" 
Debug: "14:09:47 ..\..\src\propertyslider.cpp:315 EV: Set Volume" 
Debug: "14:09:47 ..\..\src\propertyslider.cpp:315 EV: Set Volume" 
Debug: "14:09:47 ..\..\src\propertyslider.cpp:315 EV: Set Volume" 
Debug: "14:09:47 ..\..\src\propertyslider.cpp:315 EV: Set Volume" 
Debug: "14:09:47 ..\..\src\propertyslider.cpp:315 EV: Set Volume" 
Debug: "14:09:47 ..\..\src\propertyslider.cpp:315 EV: Set Volume" 
Debug: "14:09:47 ..\..\src\propertyslider.cpp:315 EV: Set Volume" 
Debug: "14:09:47 ..\..\src\propertyslider.cpp:315 EV: Set Volume" 
Debug: "14:09:47 ..\..\src\propertyslider.cpp:315 EV: Set Volume" 
Debug: "14:09:47 ..\..\src\propertyslider.cpp:315 EV: Set Volume" 
Debug: "14:09:47 ..\..\src\propertyslider.cpp:315 EV: Set Volume" 
Debug: "14:09:48 ..\..\src\propertyslider.cpp:315 EV: Set Volume" 
Debug: "14:09:49 ..\..\src\propertyslider.cpp:315 EV: Set Volume" 
Debug: "14:09:50 ..\..\src\propertyslider.cpp:315 EV: Set Volume" 
Debug: "14:10:06 ..\..\src\propertyeditor.cpp:2619 EO: Set Volume" 
Debug: "14:10:12 ..\..\src\simpleeventcontroller.cpp:606 HV: Set Playback Mode" 
Debug: "14:10:58 ..\..\src\propertyeditor.cpp:2619 EO: Set Volume" 
Debug: "14:11:14 ..\..\src\propertyeditor.cpp:2619 EO: Set Volume" 
Debug: "14:11:18 ..\..\src\simpleeventcontroller.cpp:606 HV: Set Playback Mode" 
Debug: "14:11:34 ..\..\src\propertyeditor.cpp:2619 EO: Set Volume" 
Debug: "14:11:47 ..\..\src\propertyeditor.cpp:2619 EO: Set Volume" 
Debug: "14:12:21 ..\..\src\simpleeventcontroller.cpp:606 HV: Set Playback Mode" 
Debug: "14:12:26 ..\..\src\simpleeventcontroller.cpp:606 HV: Set Playback Mode" 
Debug: 
Building project 'mothling'...
Debug: Building project C:\Program Files (x86)\Steam\SteamApps\common\Don't Starve Together\mods\mothling\sound\mothling.fev...
Debug: Unique sound defs 2/5
Debug: Retrieving sound file info...
Debug: Retrieving reverb info...
Debug: FEV file written ok
Debug: Unique Envelope Points: 0 of 0
Debug: Unique Strings: 209 characters of 209
Debug: Caching sound file details for ''...
Debug: mothling_flap.mp3
Debug: mothling_flap1.mp3
Debug: mothling_flap2.mp3
Debug: mothling_happy.mp3
Debug: mothling_hungry.mp3
Debug: mothling_longsqueak.mp3
Debug: mothling_squeak.mp3
Debug: mothling_squeak1.mp3
Debug: mothling_squeak2.mp3
Debug: Building 'mothling.fsb'
Debug: Encoded C:\Program Files (x86)\Steam\SteamApps\common\Don't Starve Together\mods\mothling\sound\mothling_flap.mp3
Debug: Encoded C:\Program Files (x86)\Steam\SteamApps\common\Don't Starve Together\mods\mothling\sound\mothling_flap1.mp3
Debug: Encoded C:\Program Files (x86)\Steam\SteamApps\common\Don't Starve Together\mods\mothling\sound\mothling_flap2.mp3
Debug: Encoded C:\Program Files (x86)\Steam\SteamApps\common\Don't Starve Together\mods\mothling\sound\mothling_hungry.mp3
Debug: Encoded C:\Program Files (x86)\Steam\SteamApps\common\Don't Starve Together\mods\mothling\sound\mothling_happy.mp3
Debug: Encoded C:\Program Files (x86)\Steam\SteamApps\common\Don't Starve Together\mods\mothling\sound\mothling_squeak.mp3
Debug: Encoded C:\Program Files (x86)\Steam\SteamApps\common\Don't Starve Together\mods\mothling\sound\mothling_longsqueak.mp3
Debug: Encoded C:\Program Files (x86)\Steam\SteamApps\common\Don't Starve Together\mods\mothling\sound\mothling_squeak1.mp3
Debug: Encoded C:\Program Files (x86)\Steam\SteamApps\common\Don't Starve Together\mods\mothling\sound\mothling_squeak2.mp3
Debug: Writing FSB...
Debug: Finished building FSB
Debug: 
Debug: 
Summary of build:
SUCCESS: C:/Program Files (x86)/Steam/SteamApps/common/Don't Starve Together/mods/mothling/sound/mothling.fev
SUCCESS: mothling.fsb
Debug: 
Building project 'mothling'...
Debug: Building project C:\Program Files (x86)\Steam\SteamApps\common\Don't Starve Together\mods\mothling\sound\mothling.fev...
Debug: Unique sound defs 2/5
Debug: Retrieving sound file info...
Debug: Retrieving reverb info...
Debug: FEV file written ok
Debug: Unique Envelope Points: 0 of 0
Debug: Unique Strings: 209 characters of 209
Debug: Caching sound file details for ''...
Debug: mothling_flap.mp3
Debug: mothling_flap1.mp3
Debug: mothling_flap2.mp3
Debug: mothling_happy.mp3
Debug: mothling_hungry.mp3
Debug: mothling_longsqueak.mp3
Debug: mothling_squeak.mp3
Debug: mothling_squeak1.mp3
Debug: mothling_squeak2.mp3
Debug: Building 'mothling.fsb'
Debug: Encoded C:\Program Files (x86)\Steam\SteamApps\common\Don't Starve Together\mods\mothling\sound\mothling_flap1.mp3
Debug: Encoded C:\Program Files (x86)\Steam\SteamApps\common\Don't Starve Together\mods\mothling\sound\mothling_flap.mp3
Debug: Encoded C:\Program Files (x86)\Steam\SteamApps\common\Don't Starve Together\mods\mothling\sound\mothling_flap2.mp3
Debug: Encoded C:\Program Files (x86)\Steam\SteamApps\common\Don't Starve Together\mods\mothling\sound\mothling_happy.mp3
Debug: Encoded C:\Program Files (x86)\Steam\SteamApps\common\Don't Starve Together\mods\mothling\sound\mothling_hungry.mp3
Debug: Encoded C:\Program Files (x86)\Steam\SteamApps\common\Don't Starve Together\mods\mothling\sound\mothling_longsqueak.mp3
Debug: Encoded C:\Program Files (x86)\Steam\SteamApps\common\Don't Starve Together\mods\mothling\sound\mothling_squeak.mp3
Debug: Encoded C:\Program Files (x86)\Steam\SteamApps\common\Don't Starve Together\mods\mothling\sound\mothling_squeak1.mp3
Debug: Encoded C:\Program Files (x86)\Steam\SteamApps\common\Don't Starve Together\mods\mothling\sound\mothling_squeak2.mp3
Debug: Writing FSB...
Debug: Finished building FSB
Debug: 
Debug: 
Summary of build:
SUCCESS: C:/Program Files (x86)/Steam/SteamApps/common/Don't Starve Together/mods/mothling/sound/mothling.fev
SUCCESS: mothling.fsb
